{"_embedded":{"results":[{"documentLinkUUID":"2d3e5122-1b00-4bd0-9252-daeff4d72e5b","docketEntryHeader":{"filedDate":"2026-07-08T18:45:02.000+00:00","docketEntryType":"Order/Dispositional","docketEntryTypeID":"1000018","docketEntrySubTypeID":"1000255","docketEntryDescription":"Order of Affirmance. \"ORDER the judgment of the district court AFFIRMED.\" DH/KP/RP. (SC)","official":true,"securedDocument":false},"caseHeader":{"caseInstanceUUID":"a12b72ce-65aa-44fb-b4d7-03180da809c7","caseNumber":"90149","caseTitle":"MARTIN, JR. (CLARENCE) VS. STATE (CRIMINAL)","caseCategory":"Criminal Appeal","courtID":"1","courtAbbreviation":"Supreme Court"}},{"documentLinkUUID":"9cc732b6-34ac-4d6f-a8bb-3f448e29750e","docketEntryHeader":{"filedDate":"2026-07-06T23:38:53.000+00:00","docketEntryType":"Order/Dispositional","docketEntryTypeID":"1000018","docketEntrySubTypeID":"1000255","docketEntryDescription":"Order of Affirmance. \"ORDER the judgment of conviction AFFIRMED.\" A26 - KP/RP/LB (SC)","official":true,"outcomeStatus":"Mailed","outcomeStatusID":"1000006","securedDocument":false},"caseHeader":{"caseInstanceUUID":"85f161c9-9903-4737-b61b-bfefbf8f7658","caseNumber":"91000","caseTitle":"De Witt v. The State of Nevada","caseCategory":"Criminal Appeal","courtID":"1","courtAbbreviation":"Supreme Court"}},{"documentLinkUUID":"f11f7e12-6b85-4a21-9328-85d313ca6ca9","docketEntryHeader":{"filedDate":"2026-07-06T23:33:18.000+00:00","docketEntryType":"Order/Dispositional","docketEntryTypeID":"1000018","docketEntrySubTypeID":"1000255","docketEntryDescription":"Order of Affirmance. \"ORDER the judgment of conviction AFFIRMED.\"  A26 - KP/RP/LB (SC)","official":true,"securedDocument":false},"caseHeader":{"caseInstanceUUID":"16ab3386-72b4-4510-978c-dc5d61ffe017","caseNumber":"90163","caseTitle":"GIPSON (JOSHUA) VS. STATE (CRIMINAL)","caseCategory":"Criminal Appeal","courtID":"1","courtAbbreviation":"Supreme Court"}},{"documentLinkUUID":"2c4585f3-fd8c-4bf6-a538-24af903e7e46","docketEntryHeader":{"filedDate":"2026-07-06T23:11:38.000+00:00","docketEntryType":"Order/Dispositional","docketEntryTypeID":"1000018","docketEntrySubTypeID":"1000251","docketEntryDescription":"Order Denying Petition. \"ORDER the petition DENIED.\" A26 - KP/RP/LB (SC)","official":true,"outcomeStatus":"Mailed","outcomeStatusID":"1000006","securedDocument":false},"caseHeader":{"caseInstanceUUID":"fa2d9dcd-8c94-4c75-9e69-df48047e239f","caseNumber":"90739","caseTitle":"MSG LV CONSTR., LLC VS. DIST. CT. (BOMBARD ELECTRIC, LLC) (CIVIL)","caseCategory":"Original Proceeding","courtID":"1","courtAbbreviation":"Supreme Court"}},{"documentLinkUUID":"0bb33b9e-f2de-4b2a-9c3d-c9540f8ad750","docketEntryHeader":{"filedDate":"2026-07-06T22:13:31.000+00:00","docketEntryType":"Order/Dispositional","docketEntryTypeID":"1000018","docketEntrySubTypeID":"1000257","docketEntryDescription":"Order of Reversal. \"ORDER the judgment of the district court REVERSED .\" A26 - KP/RP/LB (SC)","official":true,"securedDocument":false},"caseHeader":{"caseInstanceUUID":"f4d9bcdf-f87a-47bd-9e69-56830ab64a72","caseNumber":"90210","caseTitle":"PORTEX GROUP, LLC VS DONALD ALUISI (CIVIL)","caseCategory":"Civil Appeal","courtID":"1","courtAbbreviation":"Supreme Court"}},{"documentLinkUUID":"378fd7e4-e58f-4eee-8b80-a524765436f8","docketEntryHeader":{"filedDate":"2026-07-06T21:14:15.000+00:00","docketEntryType":"Order/Dispositional","docketEntryTypeID":"1000018","docketEntrySubTypeID":"1000255","docketEntryDescription":"Order of Affirmance. ORDER the judgment of the district court AFFIRMED. A26-KP/RP/LB. (SC)","official":true,"securedDocument":false},"caseHeader":{"caseInstanceUUID":"c906b80e-0e38-4d7c-9a10-08339ac1c6c6","caseNumber":"88947","caseTitle":"IGNITE TEEN TREATMENT, LLC VS. VIRTUE AT THE POINTE, LLC (CIVIL)","caseCategory":"Civil Appeal","courtID":"1","courtAbbreviation":"Supreme Court"}},{"documentLinkUUID":"f1605bac-fc0f-4a70-87f3-c7a5fc3e572d","docketEntryHeader":{"filedDate":"2026-07-06T20:36:52.000+00:00","docketEntryType":"Order/Dispositional","docketEntryTypeID":"1000018","docketEntrySubTypeID":"1000255","docketEntryDescription":"Order of Affirmance. ORDER the judgment of the district court AFFIRMED. A26-DH/KP/RP (SC)","official":true,"securedDocument":false},"caseHeader":{"caseInstanceUUID":"d87d5c7d-b82c-462f-b3ed-cd06c6bafb77","caseNumber":"89439","caseTitle":"KOSOR, JR. VS. S. HIGHLANDS CMTY. ASS'N (CIVIL)","caseCategory":"Civil Appeal","courtID":"1","courtAbbreviation":"Supreme Court"}},{"documentLinkUUID":"4d05bbab-f8eb-4ed8-bfe3-5edf4e6f2e08","docketEntryHeader":{"filedDate":"2026-07-06T18:17:10.000+00:00","docketEntryType":"Order/Dispositional","docketEntryTypeID":"1000018","docketEntrySubTypeID":"1000261","docketEntryDescription":"Order Dismissing Petition. Pursuant to the stipulation of the parties and cause appearing, \"this petition for writ of mandamus is dismissed.\" The parties shall bear their own costs and attorney fees.  Case Closed/No Remittitur Issued. (SC)","official":true,"outcomeStatus":"Mailed","outcomeStatusID":"1000006","securedDocument":false},"caseHeader":{"caseInstanceUUID":"b60d599e-0131-47c2-af04-514e07e9e650","caseNumber":"91771","caseTitle":"REAL TIME SOLUTIONS, INC. VS GRIFFIN (CIVIL)","caseCategory":"Civil Appeal","courtID":"1","courtAbbreviation":"Supreme Court"}},{"documentLinkUUID":"93e9c952-381f-4704-b6bb-46d0f6660428","docketEntryHeader":{"filedDate":"2026-07-06T17:54:48.000+00:00","docketEntryType":"Order/Dispositional","docketEntryTypeID":"1000018","docketEntrySubTypeID":"1000261","docketEntryDescription":"Order Dismissing Petition. Pursuant to the stipulation of the parties and cause appearing, \"this petition for writ of mandamus is dismissed.\" The parties shall bear their own costs and attorney fees.  Case Closed/No Remittitur Issued. (SC)","official":true,"securedDocument":false},"caseHeader":{"caseInstanceUUID":"b4caac3e-1b85-46ca-ac09-46eaf5e900b6","caseNumber":"90453","caseTitle":"SMG GROWING MEDIA, INC. VS. DIST. CT. (OVERBROOK CAPITAL LLC) (CIVIL)","caseCategory":"Original Proceeding","courtID":"1","courtAbbreviation":"Supreme Court"}},{"documentLinkUUID":"c0589c6a-4da5-4c74-ad99-02434bca2a8e","docketEntryHeader":{"filedDate":"2026-07-06T17:10:27.000+00:00","docketEntryType":"Order/Dispositional","docketEntryTypeID":"1000018","docketEntrySubTypeID":"1000252","docketEntryDescription":"Order Dismissing Appeal. \"This appeal is dismissed.\"  (SC)","official":true,"outcomeStatus":"Mailed","outcomeStatusID":"1000006","securedDocument":false},"caseHeader":{"caseInstanceUUID":"b60a36c5-362d-4209-86ad-380892c1c367","caseNumber":"92580","caseTitle":"KANDELL VS. HOWARD (CIVIL)","caseCategory":"Civil Appeal","courtID":"1","courtAbbreviation":"Supreme Court"}},{"documentLinkUUID":"bcb4c4a2-637d-42be-ab5d-3dd472cd445c","docketEntryHeader":{"filedDate":"2026-07-06T16:46:38.000+00:00","docketEntryType":"Order/Dispositional","docketEntryTypeID":"1000018","docketEntrySubTypeID":"1000252","docketEntryDescription":"Order Dismissing Appeal. \"This appeal is dismissed.\" (SC)","official":true,"securedDocument":false},"caseHeader":{"caseInstanceUUID":"da74ab1b-7c6c-4476-bb86-1561a180f76f","caseNumber":"92638","caseTitle":"RUSSELL VS. J N L CUSTOM HOMES, LLC (CIVIL)","caseCategory":"Civil Appeal","courtID":"1","courtAbbreviation":"Supreme Court"}},{"documentLinkUUID":"4d88531f-fefc-482a-bc02-38ef52d10451","docketEntryHeader":{"filedDate":"2026-07-06T16:10:38.000+00:00","docketEntryType":"Order/Dispositional","docketEntryTypeID":"1000018","docketEntrySubTypeID":"1000252","docketEntryDescription":"Order Dismissing Appeal. This appeal is dismissed. (SC)","official":true,"securedDocument":false},"caseHeader":{"caseInstanceUUID":"be587e0d-8be5-4787-9066-e8d8bc6f9aa9","caseNumber":"92635","caseTitle":"HOWARD VS. WESTLAND REAL ESTATE GROUP, LLC (CIVIL)","caseCategory":"Civil Appeal","courtID":"1","courtAbbreviation":"Supreme Court"}},{"documentLinkUUID":"ebd6dee5-0687-4e2b-8b38-6ad637e49655","docketEntryHeader":{"filedDate":"2026-07-02T20:29:17.000+00:00","docketEntryType":"Order/Dispositional","docketEntryTypeID":"1000018","docketEntrySubTypeID":"1000251","docketEntryDescription":"Order Denying Petition for Writ of Mandamus or Prohibition. \"ORDER the petition DENIED.\" A26 - KP/RP/LB (SC)","official":true,"securedDocument":false},"caseHeader":{"caseInstanceUUID":"184aef23-dd27-4af8-b89f-e793e8663f81","caseNumber":"92863","caseTitle":"HOLTORF, M.D. V. NEV. STATE BD. OF PHARMACY (CIVIL)","caseCategory":"Original Proceeding","courtID":"1","courtAbbreviation":"Supreme Court"}},{"documentLinkUUID":"29fc059b-2c16-41e4-ae45-9ac38a7527ec","docketEntryHeader":{"filedDate":"2026-07-02T14:38:59.000+00:00","docketEntryType":"Order/Dispositional","docketEntryTypeID":"1000018","docketEntrySubTypeID":"1000251","docketEntryDescription":"Order Denying Petition for Writ of Mandamus. ORDER the petition DENIED. fn1[In light of this order, petitioner's emergency motion for stay is denied as moot.]  A26-KP/RP/LB. (SC)","official":true,"securedDocument":false},"caseHeader":{"caseInstanceUUID":"171546d4-7b82-4ddf-9739-403679fc7561","caseNumber":"92809","caseTitle":"State, Nev. Dep't of Conservation and Nat. Res., Div. of Water Res. v. Dist. Ct. (Coyote Springs Invest., LLC) (Civil)","caseCategory":"Original Proceeding","courtID":"1","courtAbbreviation":"Supreme Court"}},{"documentLinkUUID":"c01308f7-333f-4822-b53e-641a84273c9c","docketEntryHeader":{"filedDate":"2026-07-01T23:07:17.000+00:00","docketEntryType":"Order/Dispositional","docketEntryTypeID":"1000018","docketEntrySubTypeID":"1000251","docketEntryDescription":"Order Denying Petition for Writ of Habeas Corpus. \"ORDER the petition DENIED.\"  fn1 [As the filing fee in this matter has been waived, petitioner's motion to\r\nproceed with in forma pauperis status is denied as moot.] B26 - LS/EC/PL (SC)","official":true,"outcomeStatus":"Mailed","outcomeStatusID":"1000006","securedDocument":false},"caseHeader":{"caseInstanceUUID":"bcbf8d9d-8e7e-43af-a41f-9e9a2e1430dd","caseNumber":"92822","caseTitle":"ORLANDO V. WARDEN, HENDERSON DETENTION CENTER (CIVIL)","caseCategory":"Original Proceeding","courtID":"1","courtAbbreviation":"Supreme Court"}},{"documentLinkUUID":"a06aba48-bbb9-45cc-a8e0-2b3bf1c0eb86","docketEntryHeader":{"filedDate":"2026-07-01T22:45:16.000+00:00","docketEntryType":"Order/Dispositional","docketEntryTypeID":"1000018","docketEntrySubTypeID":"1000252","docketEntryDescription":"Order Dismissing Appeal. \"ORDER this appeal DISMISSED.\"  LS/EC/PL (SC)","official":true,"outcomeStatus":"Mailed","outcomeStatusID":"1000006","securedDocument":false},"caseHeader":{"caseInstanceUUID":"70a73c08-569f-4fc5-96d2-5cad28293ad4","caseNumber":"92759","caseTitle":"KENIS VS. MGM RESORTS INT'L (CIVIL)","caseCategory":"Civil Appeal","courtID":"1","courtAbbreviation":"Supreme Court"}},{"documentLinkUUID":"8510a85f-e3d0-4cd7-8fa8-e30ee602c491","docketEntryHeader":{"filedDate":"2026-07-01T22:40:44.000+00:00","docketEntryType":"Order/Dispositional","docketEntryTypeID":"1000018","docketEntrySubTypeID":"1000252","docketEntryDescription":"Order Dismissing Appeal. \"ORDERS this appeal DISMISSED.\"  LS/EC/PL (SC)","official":true,"outcomeStatus":"Mailed","outcomeStatusID":"1000006","securedDocument":false},"caseHeader":{"caseInstanceUUID":"fab3dace-ed7d-4295-b43e-88fad67c710d","caseNumber":"92696","caseTitle":"PORTILLO (NESTOR) VS. STATE (CRIMINAL)","caseCategory":"Criminal Appeal","courtID":"1","courtAbbreviation":"Supreme Court"}},{"documentLinkUUID":"b0779adf-06ac-48bc-aa83-9b432203f9d4","docketEntryHeader":{"filedDate":"2026-07-01T21:40:09.000+00:00","docketEntryType":"Order/Dispositional","docketEntryTypeID":"1000018","docketEntrySubTypeID":"1000252","docketEntryDescription":"Order Dismissing Appeal. \"ORDERS this appeal DISMISSED.\"  B26 - LS/EC/PL (SC)","official":true,"outcomeStatus":"Mailed","outcomeStatusID":"1000006","securedDocument":false},"caseHeader":{"caseInstanceUUID":"e2e99591-5f10-4fb2-9ebb-7fdb3654f188","caseNumber":"92480","caseTitle":"GARCIA VS. AGUILAR (FAMILY)","caseCategory":"Civil Appeal","courtID":"1","courtAbbreviation":"Supreme Court"}},{"documentLinkUUID":"0ff47d54-02fa-4660-b451-298fa3a98791","docketEntryHeader":{"filedDate":"2026-07-01T21:19:23.000+00:00","docketEntryType":"Order/Dispositional","docketEntryTypeID":"1000018","docketEntrySubTypeID":"1000252","docketEntryDescription":"Order Dismissing Appeal. \"ORDERS this appeal DISMISSED.\"  B26 - LS/EC/PL (SC)","official":true,"outcomeStatus":"Mailed","outcomeStatusID":"1000006","securedDocument":false},"caseHeader":{"caseInstanceUUID":"f9d05457-e116-448d-aa41-63c7d2247fd0","caseNumber":"92278","caseTitle":"FORS VS. FORS (FAMILY)","caseCategory":"Civil Appeal","courtID":"1","courtAbbreviation":"Supreme Court"}},{"documentLinkUUID":"2d81fcba-43c8-4047-a2d1-3021c901b008","docketEntryHeader":{"filedDate":"2026-07-01T19:38:31.000+00:00","docketEntryType":"Order/Dispositional","docketEntryTypeID":"1000018","docketEntrySubTypeID":"1000252","docketEntryDescription":"Order Dismissing Appeal. \"ORDER this appeal DISMISSED.\" fn1 [The March 2, 2026, motion is denied. The clerk shall strike the\r\ndocketing statement filed on March 2, 2026.]  B26 - LS/EC/PL (SC)","official":true,"outcomeStatus":"Mailed","outcomeStatusID":"1000006","securedDocument":false},"caseHeader":{"caseInstanceUUID":"5e0063c7-fa98-458a-bc3a-9eb5365497b1","caseNumber":"91796","caseTitle":"HICKEY VS. ALESSI (CIVIL)","caseCategory":"Civil Appeal","courtID":"1","courtAbbreviation":"Supreme Court"}},{"documentLinkUUID":"5b9f9bce-c874-4893-8a21-5002f1f001d2","docketEntryHeader":{"filedDate":"2026-07-01T19:21:15.000+00:00","docketEntryType":"Order/Dispositional","docketEntryTypeID":"1000018","docketEntrySubTypeID":"1000252","docketEntryDescription":"Order Dismissing Appeal. \"This dismissal is without prejudice to appellant's right to move for reinstatement of this appeal within 45 days of either the lifting of the bankruptcy stay or final resolution of the bankruptcy proceedings, if it deems such a motion appropriate at that time.\" fn1 [In light of this order, appellant's motion for an extension of time to file the opening brief  and respondent's motion to dismiss this appeal are denied.]  B26 - LS/EC/PL (SC)","official":true,"securedDocument":false},"caseHeader":{"caseInstanceUUID":"6caad4aa-5874-4c2e-aa88-c62a92dcc214","caseNumber":"91442","caseTitle":"PFS LTD. VS. FORTUNATE DRIFT LTD. (CIVIL)","caseCategory":"Civil Appeal","courtID":"1","courtAbbreviation":"Supreme Court"}},{"documentLinkUUID":"45c50846-b57b-4e37-b3d6-c95a97b49a88","docketEntryHeader":{"filedDate":"2026-07-01T17:04:59.000+00:00","docketEntryType":"Order/Dispositional","docketEntryTypeID":"1000018","docketEntrySubTypeID":"1000250","docketEntryDescription":"Order Affirming in Part, Reversing in Part and Remanding. \"ORDER the judgment of the district court AFFIRMED IN PART AND REVERSED IN PART AND REMAND this matter to the district court to amend the judgment consistent with this order.\" EN BANC. (SC)","official":true,"securedDocument":false},"caseHeader":{"caseInstanceUUID":"61f9c840-ef88-4470-aaea-e8002dc305d2","caseNumber":"87383","caseTitle":"LV.NET LLC VS. CHEETAH WIRELESS TECH. INC. C/W 88048","caseCategory":"Civil Appeal","courtID":"1","courtAbbreviation":"Supreme Court"}},{"documentLinkUUID":"45c50846-b57b-4e37-b3d6-c95a97b49a88","docketEntryHeader":{"filedDate":"2026-07-01T17:04:59.000+00:00","docketEntryType":"Order/Dispositional","docketEntryTypeID":"1000018","docketEntrySubTypeID":"1000250","docketEntryDescription":"Order Affirming in Part, Reversing in Part and Remanding. \"ORDER the judgment of the district court AFFIRMED IN PART AND REVERSED IN PART AND REMAND this matter to the district court to amend the judgment consistent with this order.\" EN BANC. (SC)","official":true,"securedDocument":false},"caseHeader":{"caseInstanceUUID":"c5fda9e6-bf47-4283-b245-f2a72375268e","caseNumber":"88048","caseTitle":"LV.NET LLC VS. CHEETAH WIRELESS TECH. INC. C/W 87383","caseCategory":"Civil Appeal","courtID":"1","courtAbbreviation":"Supreme Court"}},{"documentLinkUUID":"2981dfd0-edfa-46bb-835c-fd6ca8038266","docketEntryHeader":{"filedDate":"2026-06-30T15:01:54.000+00:00","docketEntryType":"Order/Dispositional","docketEntryTypeID":"1000018","docketEntrySubTypeID":"1000261","docketEntryDescription":"Order Dismissing Appeal. Pursuant to the stipulation of the parties, and cause appearing, this appeal is dismissed.  (SC)","official":true,"securedDocument":false},"caseHeader":{"caseInstanceUUID":"db7bc81a-c262-46d7-8fa7-b921837d1417","caseNumber":"88735","caseTitle":"MOSLEY VS. LEE","caseCategory":"Civil Appeal","courtID":"1","courtAbbreviation":"Supreme Court"}},{"documentLinkUUID":"1a713e0e-1f4a-4194-b4f1-b5614fec017f","docketEntryHeader":{"filedDate":"2026-06-26T20:50:23.000+00:00","docketEntryType":"Order/Dispositional","docketEntryTypeID":"1000018","docketEntrySubTypeID":"1000252","docketEntryDescription":"ORDER this appeal DISMISSED. A26-KP/RP/LB. (SC)","official":true,"outcomeStatus":"Mailed","outcomeStatusID":"1000006","securedDocument":false},"caseHeader":{"caseInstanceUUID":"b7acc292-cde6-47c5-92b5-6182d9df83a6","caseNumber":"92645","caseTitle":"Vance v. T. et al","caseCategory":"Civil Appeal","courtID":"1","courtAbbreviation":"Supreme Court"}}]},"page":{"size":25,"totalElements":10000,"totalPages":400,"number":0}}