{"_embedded":{"results":[{"documentLinkUUID":"19961fd6-6e1a-44c1-92dd-7d7c8fc9ad55","docketEntryHeader":{"filedDate":"2026-07-09T14:59:42.000+00:00","docketEntryType":"Order/Dispositional","docketEntryTypeID":"1000018","docketEntrySubTypeID":"1000255","docketEntryDescription":"Order of Affirmance. ORDER the judgment of the district court AFFIRMED.  fn3[We deny Grigalanz's pending motion to supplement the record on appeal with documents not provided to the district court.] fn5[We further deny Grigalanz's emergency motion filed July 6, 2026, as moot.] COA-BB/MG/DW. (COA)","official":true,"securedDocument":false},"caseHeader":{"caseInstanceUUID":"0a894473-e45a-4ab3-80c8-a0e128cba4e7","caseNumber":"91619-COA","caseTitle":"GRIGALANZ VS. COPAS (CHILD CUSTODY)","caseCategory":"Civil Appeal","courtID":"2","courtAbbreviation":"Court of Appeals"}},{"documentLinkUUID":"4000e74f-4544-4ec0-a8bc-365aedfc38ad","docketEntryHeader":{"filedDate":"2026-07-08T15:36:13.000+00:00","docketEntryType":"Order/Dispositional","docketEntryTypeID":"1000018","docketEntrySubTypeID":"1000255","docketEntryDescription":"Order of Affirmance. ORDER the judgment of the district court AFFIRMED. COA-BB/MG/DW. (COA)","official":true,"outcomeStatus":"Mailed","outcomeStatusID":"1000006","securedDocument":false},"caseHeader":{"caseInstanceUUID":"f07fa028-f194-4624-830f-e9d4817ada52","caseNumber":"91617-COA","caseTitle":"WOLFE VS. MANNION (CHILD CUSTODY)","caseCategory":"Civil Appeal","courtID":"2","courtAbbreviation":"Court of Appeals"}},{"documentLinkUUID":"75f28696-0309-4de9-9ac3-2a8b8b1598e0","docketEntryHeader":{"filedDate":"2026-07-08T14:48:32.000+00:00","docketEntryType":"Order/Dispositional","docketEntryTypeID":"1000018","docketEntrySubTypeID":"1000255","docketEntryDescription":"Order of Affirmance and Limited Remand to Correct Clerical Error. ORDER the judgment of conviction AFFIRMED and REMAND for the limited purpose of correcting the clerical error in the judgment of conviction. COA-BB/MG/DW. (COA)","official":true,"outcomeStatus":"Mailed","outcomeStatusID":"1000006","securedDocument":false},"caseHeader":{"caseInstanceUUID":"e55d0dec-32e9-40f1-8670-5db1b673c5f7","caseNumber":"90945-COA","caseTitle":"PALOMARES (EMANUEL) VS. STATE (CRIMINAL)","caseCategory":"Criminal Appeal","courtID":"2","courtAbbreviation":"Court of Appeals"}},{"documentLinkUUID":"bcc6c0bb-c3ec-40b9-afd1-da364c3e7e64","docketEntryHeader":{"filedDate":"2026-07-01T20:25:25.000+00:00","docketEntryType":"Order/Dispositional","docketEntryTypeID":"1000018","docketEntrySubTypeID":"1000255","docketEntryDescription":"Order Affirming in Part and Dismissing in Part. ORDER the judgment of the district court AFFIRMED in part, and DISMISS this appeal in part.  COA-BB/MG/DW. (COA)","official":true,"securedDocument":false},"caseHeader":{"caseInstanceUUID":"ab4e5345-77d9-4288-a7c8-705ef4773983","caseNumber":"90847-COA","caseTitle":"IN RE: JOINT PETITION OF MCKENDRY (FAMILY)","caseCategory":"Civil Appeal","courtID":"2","courtAbbreviation":"Court of Appeals"}},{"documentLinkUUID":"3e27f0c2-c287-4058-9082-17d26b6afd5e","docketEntryHeader":{"filedDate":"2026-07-01T20:05:37.000+00:00","docketEntryType":"Order/Dispositional","docketEntryTypeID":"1000018","docketEntrySubTypeID":"1000254","docketEntryDescription":"Order Granting in Part and Denying in Part Petition for Writ of Mandamus or Prohibition.  ORDER the petition GRANTED IN PART AND DIRECT THE CLERK OF THIS COURT TO ISSUE A WRIT OF MANDAMUS instructing the district court to vacate the bench warrant issued against Medina. (COA)","official":true,"securedDocument":false},"caseHeader":{"caseInstanceUUID":"00b0bddf-3c1d-4273-b8a6-73d33b53a4d7","caseNumber":"92312-COA","caseTitle":"ORTEGA VS. DIST. CT. (ORTEGA) (CHILD CUSTODY)","caseCategory":"Original Proceeding","courtID":"2","courtAbbreviation":"Court of Appeals"}},{"documentLinkUUID":"30efa055-63a4-47d1-9665-37ae8f2843eb","docketEntryHeader":{"filedDate":"2026-07-01T18:37:54.000+00:00","docketEntryType":"Order/Dispositional","docketEntryTypeID":"1000018","docketEntrySubTypeID":"1000255","docketEntryDescription":"Order of Affirmance. ORDER the judgment of the district court AFFIRMED. (COA)","official":true,"outcomeStatus":"Mailed","outcomeStatusID":"1000006","securedDocument":false},"caseHeader":{"caseInstanceUUID":"aa232ce1-0164-459b-8116-2c46bbe7e676","caseNumber":"89121-COA","caseTitle":"GUDENAVICHENE VS. W. PROGRESSIVE-NEV., INC. (CIVIL)","caseCategory":"Civil Appeal","courtID":"2","courtAbbreviation":"Court of Appeals"}},{"documentLinkUUID":"584d9a5a-c6e1-424a-941b-2f4919595d0a","docketEntryHeader":{"filedDate":"2026-06-30T22:17:12.000+00:00","docketEntryType":"Order/Dispositional","docketEntryTypeID":"1000018","docketEntrySubTypeID":"1000255","docketEntryDescription":"Order of Affirmance. ORDER the judgment of the district court AFFIRMED. fn1[Insofar as Lancaster raises other arguments not specifically addressed in this order, we have considered the same and conclude that they do not present a basis for relief. After briefing was completed in this matter, Lancaster filed an emergency motion to strike the record on appeal and vacate the underlying proceedings on the grounds that record on appeal \"is a sanitized, fabricated legal instrument designed to conceal a void judgment and deceive this panel.\"  Having considered Lancaster's motion and related filings, we deny any relief sought therein.] COA-BB/MG/DW. (COA)","official":true,"outcomeStatus":"Mailed","outcomeStatusID":"1000006","securedDocument":false},"caseHeader":{"caseInstanceUUID":"bcd7f487-ecf8-4077-bab7-8bd2481ffba5","caseNumber":"91372-COA","caseTitle":"LANCASTER VS. BAUERLE (FAMILY)","caseCategory":"Civil Appeal","courtID":"2","courtAbbreviation":"Court of Appeals"}},{"documentLinkUUID":"fe519534-b40b-4b3a-86b3-a93193162708","docketEntryHeader":{"filedDate":"2026-06-30T20:31:55.000+00:00","docketEntryType":"Order/Dispositional","docketEntryTypeID":"1000018","docketEntrySubTypeID":"1000255","docketEntryDescription":"Order of Affirmance. ORDER the judgment of the district court AFFIRMED. COA-BB/MG/DW. (COA)","official":true,"outcomeStatus":"Mailed","outcomeStatusID":"1000006","securedDocument":false},"caseHeader":{"caseInstanceUUID":"d5701432-fb2d-42e4-8737-be5b03308883","caseNumber":"89794-COA","caseTitle":"SOOS VS. SATICOY BAY, LLC, SERIES 916 NAWKEE (CIVIL)","caseCategory":"Civil Appeal","courtID":"2","courtAbbreviation":"Court of Appeals"}},{"documentLinkUUID":"497dee0a-2bba-477e-a0bf-7c6ad04b113e","docketEntryHeader":{"filedDate":"2026-06-30T18:04:02.000+00:00","docketEntryType":"Order/Dispositional","docketEntryTypeID":"1000018","docketEntrySubTypeID":"1000250","docketEntryDescription":"Order Affirming in Part, Reversing in Part, Dismissing in Part and Remanding. ORDER the judgment of the district court AFFIRMED IN PART, REVERSED IN PART, DISMISS the appeal in part without prejudice, AND REMAND this matter to the district court for proceedings consistent with this order. COA-BB/MG/DW. (COA)","official":true,"securedDocument":false},"caseHeader":{"caseInstanceUUID":"4ea684e1-5cbf-4d1e-aa77-c4f4f5a942af","caseNumber":"89845-COA","caseTitle":"PAUL VS. PAUL (FAMILY)","caseCategory":"Civil Appeal","courtID":"2","courtAbbreviation":"Court of Appeals"}},{"documentLinkUUID":"e4394aa6-392c-4567-a3ec-23ff8c4f1473","docketEntryHeader":{"filedDate":"2026-06-30T17:48:22.000+00:00","docketEntryType":"Order/Dispositional","docketEntryTypeID":"1000018","docketEntrySubTypeID":"1000255","docketEntryDescription":"ORDER the judgment of the district court AFFIRMED. COA-BB/MG/DW. (COA)","official":true,"outcomeStatus":"Mailed","outcomeStatusID":"1000006","securedDocument":false},"caseHeader":{"caseInstanceUUID":"c56f233e-5715-4b5a-882a-e9df2406fcb0","caseNumber":"91075-COA","caseTitle":"IBANEZ VS. CHAISAWANG (CHILD CUSTODY)","caseCategory":"Civil Appeal","courtID":"2","courtAbbreviation":"Court of Appeals"}},{"documentLinkUUID":"651a20d9-3c38-4ca4-a8cc-be62193ca24b","docketEntryHeader":{"filedDate":"2026-06-30T16:56:34.000+00:00","docketEntryType":"Order/Dispositional","docketEntryTypeID":"1000018","docketEntrySubTypeID":"1000255","docketEntryDescription":"ORDER the judgment of the district court AFFIRMED. fn6[Insofar as Amber raises other arguments not specifically addressed in this order, we have considered the same and conclude that they do not present a basis for relief. In addition, Amber has filed an emergency motion for a stay of the current parenting time schedule.  We have reviewed the motion and the additional supporting documents Amber has filed, and we conclude no relief based upon those submissions is warranted.] COA-BB/MG/DW. (COA)","official":true,"securedDocument":false},"caseHeader":{"caseInstanceUUID":"5c450502-426a-40f2-8118-15f2ed243134","caseNumber":"90848-COA","caseTitle":"Johnson et al v. Parker","caseCategory":"Civil Appeal","courtID":"2","courtAbbreviation":"Court of Appeals"}},{"documentLinkUUID":"d6b99aeb-94ed-4fa1-9713-0d04b598c53f","docketEntryHeader":{"filedDate":"2026-06-30T16:24:55.000+00:00","docketEntryType":"Order/Dispositional","docketEntryTypeID":"1000018","docketEntrySubTypeID":"1000251","docketEntryDescription":"ORDER the petition DENIED. COA-BB/MG/DW. (COA)","official":true,"outcomeStatus":"Mailed","outcomeStatusID":"1000006","securedDocument":false},"caseHeader":{"caseInstanceUUID":"e0a8b480-1f32-4ba0-9467-748621fc5ef5","caseNumber":"92692-COA","caseTitle":"DESERT CAB, LLC VS. DIST. CT. (RAINS) (CIVIL)","caseCategory":"Original Proceeding","courtID":"2","courtAbbreviation":"Court of Appeals"}},{"documentLinkUUID":"29d2c7d1-2e05-4e88-95ad-250db37d1f4c","docketEntryHeader":{"filedDate":"2026-06-29T20:42:07.000+00:00","docketEntryType":"Order/Dispositional","docketEntryTypeID":"1000018","docketEntrySubTypeID":"1000251","docketEntryDescription":"Order Denying Petition. ORDER the petition DENIED. COA-BB/MG/DW. (COA)","official":true,"outcomeStatus":"Mailed","outcomeStatusID":"1000006","securedDocument":false},"caseHeader":{"caseInstanceUUID":"fb0011be-d62d-4d05-96ee-05844d6e5a7c","caseNumber":"92499-COA","caseTitle":"SKONEZNY (BRAYDON) VS. DIST. CT. (STATE) (CRIMINAL)","caseCategory":"Original Proceeding","courtID":"2","courtAbbreviation":"Court of Appeals"}},{"documentLinkUUID":"d98eaf52-f897-415d-ab82-d716e29ca021","docketEntryHeader":{"filedDate":"2026-06-29T17:32:01.000+00:00","docketEntryType":"Order/Dispositional","docketEntryTypeID":"1000018","docketEntrySubTypeID":"1000251","docketEntryDescription":"ORDER the petition DENIED. fn1[In light of this order, we also deny petitioners' stay motion.] COA-BB/MG/DW. (COA)","official":true,"outcomeStatus":"Mailed","outcomeStatusID":"1000006","securedDocument":false},"caseHeader":{"caseInstanceUUID":"a2fcf4b6-39dc-4e7f-a827-5da1edb97e1e","caseNumber":"92702-COA","caseTitle":"WALKER VS. DIST. CT. (SAINI) (CIVIL)","caseCategory":"Original Proceeding","courtID":"2","courtAbbreviation":"Court of Appeals"}},{"documentLinkUUID":"ae697ec2-bdad-40bc-b72c-4255ed8b0ebc","docketEntryHeader":{"filedDate":"2026-06-29T16:00:39.000+00:00","docketEntryType":"Order/Dispositional","docketEntryTypeID":"1000018","docketEntrySubTypeID":"1000255","docketEntryDescription":"ORDER the judgment of the district court AFFIRMED. COA-BB/MG/DW. (COA)","official":true,"outcomeStatus":"Mailed","outcomeStatusID":"1000006","securedDocument":false},"caseHeader":{"caseInstanceUUID":"eb6b612e-5ca6-4943-bccd-ef3aabf59c11","caseNumber":"89992-COA","caseTitle":"ZHANG VS. GOLD SHIELD GP., LLC (CIVIL)","caseCategory":"Civil Appeal","courtID":"2","courtAbbreviation":"Court of Appeals"}},{"documentLinkUUID":"e898d107-e66e-483c-a164-1edf9fa85974","docketEntryHeader":{"filedDate":"2026-06-29T15:48:38.000+00:00","docketEntryType":"Order/Dispositional","docketEntryTypeID":"1000018","docketEntrySubTypeID":"1000255","docketEntryDescription":"ORDER the judgment of the district court AFFIRMED. COA-BB/MG/DW. (COA)","official":true,"outcomeStatus":"Mailed","outcomeStatusID":"1000006","securedDocument":false},"caseHeader":{"caseInstanceUUID":"825eb267-c9b0-438d-8c9f-1962ada9a8fd","caseNumber":"90807-COA","caseTitle":"LAS VEGAS METRO. POLICE DEP'T VS. BURNETT (CIVIL)","caseCategory":"Civil Appeal","courtID":"2","courtAbbreviation":"Court of Appeals"}},{"documentLinkUUID":"b2183b3d-7279-4d66-8224-0407ecb9a9cb","docketEntryHeader":{"filedDate":"2026-06-29T15:31:44.000+00:00","docketEntryType":"Order/Dispositional","docketEntryTypeID":"1000018","docketEntrySubTypeID":"1000255","docketEntryDescription":"ORDER the judgment of the district court AFFIRMED. COA-BB/MG/DW. (COA)","official":true,"outcomeStatus":"Mailed","outcomeStatusID":"1000006","securedDocument":false},"caseHeader":{"caseInstanceUUID":"abe21e59-43da-466e-9ea2-d34ddd39b9df","caseNumber":"91345-COA","caseTitle":"HICKS VS. LINDSEY (CHILD CUSTODY)","caseCategory":"Civil Appeal","courtID":"2","courtAbbreviation":"Court of Appeals"}},{"documentLinkUUID":"c57c6019-aec0-48a8-9bab-a4e1dccf518c","docketEntryHeader":{"filedDate":"2026-06-29T15:11:00.000+00:00","docketEntryType":"Order/Dispositional","docketEntryTypeID":"1000018","docketEntrySubTypeID":"1000255","docketEntryDescription":"ORDER the judgment of the district court AFFIRMED. COA-BB/MG/DW. (COA)","official":true,"outcomeStatus":"Mailed","outcomeStatusID":"1000006","securedDocument":false},"caseHeader":{"caseInstanceUUID":"8cbf3679-423f-4e6b-8222-dbaf4e73ef96","caseNumber":"90106-COA","caseTitle":"NORMAN, LLC VS. WILMINGTON TRUST N.A. (CIVIL)","caseCategory":"Civil Appeal","courtID":"2","courtAbbreviation":"Court of Appeals"}},{"documentLinkUUID":"6e19231a-3f8b-47f8-b32f-f0ebcd072d2d","docketEntryHeader":{"filedDate":"2026-06-24T13:45:12.000+00:00","docketEntryType":"Order/Dispositional","docketEntryTypeID":"1000018","docketEntrySubTypeID":"1000255","docketEntryDescription":"ORDER the judgment of the district court AFFIRMED.  COA-BB/MG/DW. (COA)","official":true,"securedDocument":false},"caseHeader":{"caseInstanceUUID":"374eba28-64ce-46a8-9b9e-a5e12f143a99","caseNumber":"90045-COA","caseTitle":"SAMADANI VS. DOWNEY HYUNDAI, INC. (CIVIL)","caseCategory":"Civil Appeal","courtID":"2","courtAbbreviation":"Court of Appeals"}},{"documentLinkUUID":"4e8cdc5d-8042-4a51-8bba-f44d2d278741","docketEntryHeader":{"filedDate":"2026-06-24T00:22:54.000+00:00","docketEntryType":"Order/Dispositional","docketEntryTypeID":"1000018","docketEntrySubTypeID":"1000255","docketEntryDescription":"ORDER the judgment of conviction AFFIRMED. COA-BB/MG/DW. (COA)","official":true,"outcomeStatus":"Mailed","outcomeStatusID":"1000006","securedDocument":false},"caseHeader":{"caseInstanceUUID":"b48eee0e-c045-44d4-9620-9038f6a3b9e2","caseNumber":"89034-COA","caseTitle":"TAUNAHOLO (PENISIMANI) VS. STATE (CRIMINAL)","caseCategory":"Criminal Appeal","courtID":"2","courtAbbreviation":"Court of Appeals"}},{"documentLinkUUID":"08de5241-87d7-4cb1-991f-6b2cc1f9192a","docketEntryHeader":{"filedDate":"2026-06-24T00:10:06.000+00:00","docketEntryType":"Order/Dispositional","docketEntryTypeID":"1000018","docketEntrySubTypeID":"1000255","docketEntryDescription":"ORDER the judgment of conviction AFFIRMED. COA-BB/MG/DW. (COA)","official":true,"outcomeStatus":"Mailed","outcomeStatusID":"1000006","securedDocument":false},"caseHeader":{"caseInstanceUUID":"e01dff4f-18fd-471f-a587-0b6cb3edbe2e","caseNumber":"91763-COA","caseTitle":"BROOKS (DAMIEN) VS. STATE (CRIMINAL)","caseCategory":"Criminal Appeal","courtID":"2","courtAbbreviation":"Court of Appeals"}},{"documentLinkUUID":"35d0d163-d055-4947-a07d-20423add0bec","docketEntryHeader":{"filedDate":"2026-06-18T22:09:38.000+00:00","docketEntryType":"Order/Dispositional","docketEntryTypeID":"1000018","docketEntrySubTypeID":"1000255","docketEntryDescription":"Amended Order of Affirmance. ORDER the judgment of the district court AFFIRMED. fn1[Having considered Richard's petition for rehearing, we grant the petition, vacate our March 9, 2026, order of affirmance, and issue this amended order in its place.] COA-BB/MG/DW. (COA)","official":true,"securedDocument":false},"caseHeader":{"caseInstanceUUID":"7b745996-aa60-429b-8f72-8f960a5c833f","caseNumber":"89658-COA","caseTitle":"RICHARD (DVONTAE) VS. STATE (CRIMINAL)","caseCategory":"Criminal Appeal","courtID":"2","courtAbbreviation":"Court of Appeals"}},{"documentLinkUUID":"7fbfffc3-e024-4abb-89f0-e8422808c3b6","docketEntryHeader":{"filedDate":"2026-06-18T20:24:22.000+00:00","docketEntryType":"Order/Dispositional","docketEntryTypeID":"1000018","docketEntrySubTypeID":"1000250","docketEntryDescription":"Order Affirming in Part, Vacating in Part and Remanding. ORDER the judgment of the district court AFFIRMED IN PART AND VACATED IN PART AND REMAND this matter to the district court for proceedings consistent with this order. COA-BB/MG/DW. (COA)","official":true,"outcomeStatus":"Mailed","outcomeStatusID":"1000006","securedDocument":false},"caseHeader":{"caseInstanceUUID":"fb10dd3c-b073-4100-b933-5446e47ab665","caseNumber":"88886-COA","caseTitle":"ELWARDT VS. ELWARDT (FAMILY)","caseCategory":"Civil Appeal","courtID":"2","courtAbbreviation":"Court of Appeals"}},{"documentLinkUUID":"c85bacac-a1b7-432c-b891-42b892427bf5","docketEntryHeader":{"filedDate":"2026-06-18T16:13:52.000+00:00","docketEntryType":"Order/Dispositional","docketEntryTypeID":"1000018","docketEntrySubTypeID":"1000255","docketEntryDescription":"ORDER the judgment of the district court AFFIRMED. COA-BB/MG/DW. (COA)","official":true,"outcomeStatus":"Mailed","outcomeStatusID":"1000006","securedDocument":false},"caseHeader":{"caseInstanceUUID":"bfb1e51d-fd6d-4dfd-a4cd-4ce2b01c6d00","caseNumber":"90971-COA","caseTitle":"HAYES (JIMMY) VS. STATE (CRIMINAL)","caseCategory":"Criminal Appeal","courtID":"2","courtAbbreviation":"Court of Appeals"}},{"documentLinkUUID":"3c22a667-6071-4306-ae53-095f7bdf2556","docketEntryHeader":{"filedDate":"2026-06-18T15:55:22.000+00:00","docketEntryType":"Order/Dispositional","docketEntryTypeID":"1000018","docketEntrySubTypeID":"1000257","docketEntryDescription":"ORDER the judgment of the district court REVERSED AND REMAND this matter to the district court for proceedings consistent with this order.  COA-BB/MG/DW. (COA)","official":true,"outcomeStatus":"Mailed","outcomeStatusID":"1000006","securedDocument":false},"caseHeader":{"caseInstanceUUID":"5a5a135c-d9da-4e9e-a27c-b814c0a00233","caseNumber":"89566-COA","caseTitle":"YANKO (ALEX) VS. STATE (CRIMINAL)","caseCategory":"Criminal Appeal","courtID":"2","courtAbbreviation":"Court of Appeals"}}]},"page":{"size":25,"totalElements":9307,"totalPages":373,"number":0}}