{
    "count": 5469,
    "next": "https://www.jag.navy.mil/api/tables/decisions-opinions/data/?page=2",
    "previous": null,
    "results": [
        {
            "id": 10581,
            "data": {
                "6e61b248-ef67-423e-b321-f2ed8ad05728": "2023-11-09",
                "80dedfc1-74a9-4372-a36f-8736c6baf754": "202200128",
                "9152980f-7bd6-4b48-8130-10500cda8cca": "Per Curiam",
                "9a84d8ce-017d-4a4b-821f-2fa33b700b0c": "U.S. v. ROACHE"
            },
            "documents": [
                {
                    "document": {
                        "id": 7281,
                        "title": "ROACHE_202200128_PC",
                        "is_searchable": true,
                        "search_description": "",
                        "mime_type": "application/pdf",
                        "created_at": "2023-11-09T14:50:22.191162Z",
                        "file_type": 6,
                        "file_type__label": "PDF",
                        "download_url": "https://www.jag.navy.mil/documents/7281/ROACHE_202200128_PC.pdf"
                    },
                    "key": "d1a20eee-610b-40f0-b8a7-d2316a4f1d5c"
                }
            ],
            "media": []
        },
        {
            "id": 10572,
            "data": {
                "6e61b248-ef67-423e-b321-f2ed8ad05728": "2023-11-07",
                "80dedfc1-74a9-4372-a36f-8736c6baf754": "202200125",
                "9152980f-7bd6-4b48-8130-10500cda8cca": "Unpublished",
                "9a84d8ce-017d-4a4b-821f-2fa33b700b0c": "U.S. v. JOHNSON"
            },
            "documents": [
                {
                    "document": {
                        "id": 7272,
                        "title": "JOHNSON_202200125_UNPUB",
                        "is_searchable": true,
                        "search_description": "",
                        "mime_type": "application/pdf",
                        "created_at": "2023-11-07T17:50:09.664952Z",
                        "file_type": 6,
                        "file_type__label": "PDF",
                        "download_url": "https://www.jag.navy.mil/documents/7272/JOHNSON_202200125_UNPUB.pdf"
                    },
                    "key": "d1a20eee-610b-40f0-b8a7-d2316a4f1d5c"
                }
            ],
            "media": []
        },
        {
            "id": 10570,
            "data": {
                "6e61b248-ef67-423e-b321-f2ed8ad05728": "2023-11-06",
                "80dedfc1-74a9-4372-a36f-8736c6baf754": "202300077",
                "9152980f-7bd6-4b48-8130-10500cda8cca": "Summary Disposition",
                "9a84d8ce-017d-4a4b-821f-2fa33b700b0c": "U.S. v. GREY"
            },
            "documents": [
                {
                    "document": {
                        "id": 7270,
                        "title": "GREY_202300077_SL",
                        "is_searchable": true,
                        "search_description": "",
                        "mime_type": "application/pdf",
                        "created_at": "2023-11-06T19:37:33.561156Z",
                        "file_type": 6,
                        "file_type__label": "PDF",
                        "download_url": "https://www.jag.navy.mil/documents/7270/GREY_202300077_SL.pdf"
                    },
                    "key": "d1a20eee-610b-40f0-b8a7-d2316a4f1d5c"
                }
            ],
            "media": []
        },
        {
            "id": 10571,
            "data": {
                "6e61b248-ef67-423e-b321-f2ed8ad05728": "2023-11-06",
                "80dedfc1-74a9-4372-a36f-8736c6baf754": "202300120",
                "9152980f-7bd6-4b48-8130-10500cda8cca": "Summary Disposition",
                "9a84d8ce-017d-4a4b-821f-2fa33b700b0c": "U.S. v. WALLS"
            },
            "documents": [
                {
                    "document": {
                        "id": 7271,
                        "title": "WALLS_202300120_SL",
                        "is_searchable": true,
                        "search_description": "",
                        "mime_type": "application/pdf",
                        "created_at": "2023-11-06T19:39:28.183085Z",
                        "file_type": 6,
                        "file_type__label": "PDF",
                        "download_url": "https://www.jag.navy.mil/documents/7271/WALLS_202300120_SL.pdf"
                    },
                    "key": "d1a20eee-610b-40f0-b8a7-d2316a4f1d5c"
                }
            ],
            "media": []
        },
        {
            "id": 10478,
            "data": {
                "6e61b248-ef67-423e-b321-f2ed8ad05728": "2023-10-30",
                "80dedfc1-74a9-4372-a36f-8736c6baf754": "202200223",
                "9152980f-7bd6-4b48-8130-10500cda8cca": "Per Curiam",
                "9a84d8ce-017d-4a4b-821f-2fa33b700b0c": "U.S. v. DIOGUARDI"
            },
            "documents": [
                {
                    "document": {
                        "id": 7258,
                        "title": "DIOGUARDI_202200223_PC",
                        "is_searchable": true,
                        "search_description": "",
                        "mime_type": "application/pdf",
                        "created_at": "2023-10-30T19:51:29.722385Z",
                        "file_type": 6,
                        "file_type__label": "PDF",
                        "download_url": "https://www.jag.navy.mil/documents/7258/DIOGUARDI_202200223_PC.pdf"
                    },
                    "key": "d1a20eee-610b-40f0-b8a7-d2316a4f1d5c"
                }
            ],
            "media": []
        },
        {
            "id": 10381,
            "data": {
                "6e61b248-ef67-423e-b321-f2ed8ad05728": "2023-10-23",
                "80dedfc1-74a9-4372-a36f-8736c6baf754": "202200230",
                "9152980f-7bd6-4b48-8130-10500cda8cca": "Unpublished",
                "9a84d8ce-017d-4a4b-821f-2fa33b700b0c": "U.S. v. MILLER"
            },
            "documents": [
                {
                    "document": {
                        "id": 7238,
                        "title": "MILLER_202200230_UNPUB_Admin Corr",
                        "is_searchable": true,
                        "search_description": "",
                        "mime_type": "application/pdf",
                        "created_at": "2023-10-24T17:04:43.689631Z",
                        "file_type": 6,
                        "file_type__label": "PDF",
                        "download_url": "https://www.jag.navy.mil/documents/7238/MILLER_202200230_UNPUB_Admin_Corr.pdf"
                    },
                    "key": "d1a20eee-610b-40f0-b8a7-d2316a4f1d5c"
                }
            ],
            "media": []
        },
        {
            "id": 10299,
            "data": {
                "6e61b248-ef67-423e-b321-f2ed8ad05728": "2023-10-18",
                "80dedfc1-74a9-4372-a36f-8736c6baf754": "202300009",
                "9152980f-7bd6-4b48-8130-10500cda8cca": "Summary Disposition",
                "9a84d8ce-017d-4a4b-821f-2fa33b700b0c": "U.S. v. ERVIN"
            },
            "documents": [
                {
                    "document": {
                        "id": 7222,
                        "title": "ERVIN_202300009_SL",
                        "is_searchable": true,
                        "search_description": "",
                        "mime_type": "application/pdf",
                        "created_at": "2023-10-18T14:09:12.666897Z",
                        "file_type": 6,
                        "file_type__label": "PDF",
                        "download_url": "https://www.jag.navy.mil/documents/7222/ERVIN_202300009_SL.pdf"
                    },
                    "key": "d1a20eee-610b-40f0-b8a7-d2316a4f1d5c"
                }
            ],
            "media": []
        },
        {
            "id": 10298,
            "data": {
                "6e61b248-ef67-423e-b321-f2ed8ad05728": "2023-10-17",
                "80dedfc1-74a9-4372-a36f-8736c6baf754": "202200140",
                "9152980f-7bd6-4b48-8130-10500cda8cca": "Unpublished",
                "9a84d8ce-017d-4a4b-821f-2fa33b700b0c": "U.S. v. KERR"
            },
            "documents": [
                {
                    "document": {
                        "id": 7220,
                        "title": "KERR_202200140_UNPUB",
                        "is_searchable": true,
                        "search_description": "",
                        "mime_type": "application/pdf",
                        "created_at": "2023-10-17T14:32:03.784985Z",
                        "file_type": 6,
                        "file_type__label": "PDF",
                        "download_url": "https://www.jag.navy.mil/documents/7220/KERR_202200140_UNPUB.pdf"
                    },
                    "key": "d1a20eee-610b-40f0-b8a7-d2316a4f1d5c"
                }
            ],
            "media": []
        },
        {
            "id": 10217,
            "data": {
                "6e61b248-ef67-423e-b321-f2ed8ad05728": "2023-10-13",
                "80dedfc1-74a9-4372-a36f-8736c6baf754": "202200079",
                "9152980f-7bd6-4b48-8130-10500cda8cca": "Unpublished",
                "9a84d8ce-017d-4a4b-821f-2fa33b700b0c": "U.S. v. CHEGE"
            },
            "documents": [
                {
                    "document": {
                        "id": 7190,
                        "title": "CHEGE_202200079_UNPUB",
                        "is_searchable": true,
                        "search_description": "",
                        "mime_type": "application/pdf",
                        "created_at": "2023-10-13T14:02:04.054601Z",
                        "file_type": 6,
                        "file_type__label": "PDF",
                        "download_url": "https://www.jag.navy.mil/documents/7190/CHEGE_202200079_UNPUB.pdf"
                    },
                    "key": "d1a20eee-610b-40f0-b8a7-d2316a4f1d5c"
                }
            ],
            "media": []
        },
        {
            "id": 10216,
            "data": {
                "6e61b248-ef67-423e-b321-f2ed8ad05728": "2023-10-12",
                "80dedfc1-74a9-4372-a36f-8736c6baf754": "202200083",
                "9152980f-7bd6-4b48-8130-10500cda8cca": "Per Curiam Opinion",
                "9a84d8ce-017d-4a4b-821f-2fa33b700b0c": "U.S. v. HERNANDEZVALERO"
            },
            "documents": [
                {
                    "document": {
                        "id": 7189,
                        "title": "HERNANDEZVALERO_202200083_PC",
                        "is_searchable": true,
                        "search_description": "",
                        "mime_type": "application/pdf",
                        "created_at": "2023-10-12T18:58:18.310130Z",
                        "file_type": 6,
                        "file_type__label": "PDF",
                        "download_url": "https://www.jag.navy.mil/documents/7189/HERNANDEZVALERO_202200083_PC.pdf"
                    },
                    "key": "d1a20eee-610b-40f0-b8a7-d2316a4f1d5c"
                }
            ],
            "media": []
        },
        {
            "id": 10215,
            "data": {
                "6e61b248-ef67-423e-b321-f2ed8ad05728": "2023-10-10",
                "80dedfc1-74a9-4372-a36f-8736c6baf754": "202300134",
                "9152980f-7bd6-4b48-8130-10500cda8cca": "Unpublished",
                "9a84d8ce-017d-4a4b-821f-2fa33b700b0c": "U.S. v. FLANNER"
            },
            "documents": [
                {
                    "document": {
                        "id": 7164,
                        "title": "FLANNER_202300134_UNPUB",
                        "is_searchable": true,
                        "search_description": "",
                        "mime_type": "application/pdf",
                        "created_at": "2023-10-10T17:29:19.429640Z",
                        "file_type": 6,
                        "file_type__label": "PDF",
                        "download_url": "https://www.jag.navy.mil/documents/7164/FLANNER_202300134_UNPUB.pdf"
                    },
                    "key": "d1a20eee-610b-40f0-b8a7-d2316a4f1d5c"
                }
            ],
            "media": []
        },
        {
            "id": 10212,
            "data": {
                "6e61b248-ef67-423e-b321-f2ed8ad05728": "2023-10-06",
                "80dedfc1-74a9-4372-a36f-8736c6baf754": "202200076",
                "9152980f-7bd6-4b48-8130-10500cda8cca": "Unpublished Opinion",
                "9a84d8ce-017d-4a4b-821f-2fa33b700b0c": "U.S. v. WATLINGTON"
            },
            "documents": [
                {
                    "document": {
                        "id": 7161,
                        "title": "WATLINGTON_202200076_UNPUB",
                        "is_searchable": true,
                        "search_description": "",
                        "mime_type": "application/pdf",
                        "created_at": "2023-10-06T17:03:51.788414Z",
                        "file_type": 6,
                        "file_type__label": "PDF",
                        "download_url": "https://www.jag.navy.mil/documents/7161/WATLINGTON_202200076_UNPUB.pdf"
                    },
                    "key": "d1a20eee-610b-40f0-b8a7-d2316a4f1d5c"
                }
            ],
            "media": []
        },
        {
            "id": 10128,
            "data": {
                "6e61b248-ef67-423e-b321-f2ed8ad05728": "2023-09-28",
                "80dedfc1-74a9-4372-a36f-8736c6baf754": "202300055",
                "9152980f-7bd6-4b48-8130-10500cda8cca": "Summary Disposition",
                "9a84d8ce-017d-4a4b-821f-2fa33b700b0c": "U.S. v. RANGEL"
            },
            "documents": [
                {
                    "document": {
                        "id": 7156,
                        "title": "RANGEL_202300055_SL",
                        "is_searchable": true,
                        "search_description": "",
                        "mime_type": "application/pdf",
                        "created_at": "2023-10-02T12:39:07.188395Z",
                        "file_type": 6,
                        "file_type__label": "PDF",
                        "download_url": "https://www.jag.navy.mil/documents/7156/RANGEL_202300055_SL.pdf"
                    },
                    "key": "d1a20eee-610b-40f0-b8a7-d2316a4f1d5c"
                }
            ],
            "media": []
        },
        {
            "id": 10129,
            "data": {
                "6e61b248-ef67-423e-b321-f2ed8ad05728": "2023-09-28",
                "80dedfc1-74a9-4372-a36f-8736c6baf754": "202300165",
                "9152980f-7bd6-4b48-8130-10500cda8cca": "Summary Disposition",
                "9a84d8ce-017d-4a4b-821f-2fa33b700b0c": "U.S. v. SEVERINOGONZALEZ"
            },
            "documents": [
                {
                    "document": {
                        "id": 7157,
                        "title": "SEVERINOGONZALEZ_202300165_SL",
                        "is_searchable": true,
                        "search_description": "",
                        "mime_type": "application/pdf",
                        "created_at": "2023-10-02T12:44:07.020332Z",
                        "file_type": 6,
                        "file_type__label": "PDF",
                        "download_url": "https://www.jag.navy.mil/documents/7157/SEVERINOGONZALEZ_202300165_SL.pdf"
                    },
                    "key": "d1a20eee-610b-40f0-b8a7-d2316a4f1d5c"
                }
            ],
            "media": []
        },
        {
            "id": 9941,
            "data": {
                "6e61b248-ef67-423e-b321-f2ed8ad05728": "2023-09-25",
                "80dedfc1-74a9-4372-a36f-8736c6baf754": "202200156",
                "9152980f-7bd6-4b48-8130-10500cda8cca": "Unpublished Opinion",
                "9a84d8ce-017d-4a4b-821f-2fa33b700b0c": "U.S. v. LONG"
            },
            "documents": [
                {
                    "document": {
                        "id": 7074,
                        "title": "LONG_202200156_UNPUB",
                        "is_searchable": true,
                        "search_description": "",
                        "mime_type": "application/pdf",
                        "created_at": "2023-09-25T15:51:13.365506Z",
                        "file_type": 6,
                        "file_type__label": "PDF",
                        "download_url": "https://www.jag.navy.mil/documents/7074/LONG_202200156_UNPUB.pdf"
                    },
                    "key": "d1a20eee-610b-40f0-b8a7-d2316a4f1d5c"
                }
            ],
            "media": []
        },
        {
            "id": 9939,
            "data": {
                "6e61b248-ef67-423e-b321-f2ed8ad05728": "2023-09-21",
                "80dedfc1-74a9-4372-a36f-8736c6baf754": "202300043",
                "9152980f-7bd6-4b48-8130-10500cda8cca": "Summary Disposition",
                "9a84d8ce-017d-4a4b-821f-2fa33b700b0c": "U.S. v. GUIDER, Jr."
            },
            "documents": [
                {
                    "document": {
                        "id": 7018,
                        "title": "GUIDER_202300043_SL",
                        "is_searchable": true,
                        "search_description": "",
                        "mime_type": "application/pdf",
                        "created_at": "2023-09-21T14:00:52.228555Z",
                        "file_type": 6,
                        "file_type__label": "PDF",
                        "download_url": "https://www.jag.navy.mil/documents/7018/GUIDER_202300043_SL.pdf"
                    },
                    "key": "d1a20eee-610b-40f0-b8a7-d2316a4f1d5c"
                }
            ],
            "media": []
        },
        {
            "id": 9938,
            "data": {
                "6e61b248-ef67-423e-b321-f2ed8ad05728": "2023-09-21",
                "80dedfc1-74a9-4372-a36f-8736c6baf754": "202300081",
                "9152980f-7bd6-4b48-8130-10500cda8cca": "Summary Disposition",
                "9a84d8ce-017d-4a4b-821f-2fa33b700b0c": "U.S. v. HOTZ III"
            },
            "documents": [
                {
                    "document": {
                        "id": 7017,
                        "title": "HOTZ_202300081_SL",
                        "is_searchable": true,
                        "search_description": "",
                        "mime_type": "application/pdf",
                        "created_at": "2023-09-21T13:52:14.340687Z",
                        "file_type": 6,
                        "file_type__label": "PDF",
                        "download_url": "https://www.jag.navy.mil/documents/7017/HOTZ_202300081_SL.pdf"
                    },
                    "key": "d1a20eee-610b-40f0-b8a7-d2316a4f1d5c"
                }
            ],
            "media": []
        },
        {
            "id": 9937,
            "data": {
                "6e61b248-ef67-423e-b321-f2ed8ad05728": "2023-09-19",
                "80dedfc1-74a9-4372-a36f-8736c6baf754": "202300004",
                "9152980f-7bd6-4b48-8130-10500cda8cca": "Summary Disposition",
                "9a84d8ce-017d-4a4b-821f-2fa33b700b0c": "U.S. v. GALARZA"
            },
            "documents": [
                {
                    "document": {
                        "id": 7223,
                        "title": "GALARZA_202300004_SL Admin Correction",
                        "is_searchable": true,
                        "search_description": "",
                        "mime_type": "application/pdf",
                        "created_at": "2023-10-19T14:15:17.047653Z",
                        "file_type": 6,
                        "file_type__label": "PDF",
                        "download_url": "https://www.jag.navy.mil/documents/7223/GALARZA_202300004_SL_Admin_Correction.pdf"
                    },
                    "key": "d1a20eee-610b-40f0-b8a7-d2316a4f1d5c"
                }
            ],
            "media": []
        },
        {
            "id": 9936,
            "data": {
                "6e61b248-ef67-423e-b321-f2ed8ad05728": "2023-09-19",
                "80dedfc1-74a9-4372-a36f-8736c6baf754": "202300018",
                "9152980f-7bd6-4b48-8130-10500cda8cca": "Summary Disposition",
                "9a84d8ce-017d-4a4b-821f-2fa33b700b0c": "U.S. v. HUNT"
            },
            "documents": [
                {
                    "document": {
                        "id": 7014,
                        "title": "HUNT_202300018_SL",
                        "is_searchable": true,
                        "search_description": "",
                        "mime_type": "application/pdf",
                        "created_at": "2023-09-19T17:25:48.991620Z",
                        "file_type": 6,
                        "file_type__label": "PDF",
                        "download_url": "https://www.jag.navy.mil/documents/7014/HUNT_202300018_SL.pdf"
                    },
                    "key": "d1a20eee-610b-40f0-b8a7-d2316a4f1d5c"
                }
            ],
            "media": []
        },
        {
            "id": 9862,
            "data": {
                "6e61b248-ef67-423e-b321-f2ed8ad05728": "2023-09-11",
                "80dedfc1-74a9-4372-a36f-8736c6baf754": "202200063",
                "9152980f-7bd6-4b48-8130-10500cda8cca": "Unpublished",
                "9a84d8ce-017d-4a4b-821f-2fa33b700b0c": "U.S. v. SANTOSCRUZ"
            },
            "documents": [
                {
                    "document": {
                        "id": 6877,
                        "title": "SANTOSCRUZ_202200063_UNPUB",
                        "is_searchable": true,
                        "search_description": "",
                        "mime_type": "application/pdf",
                        "created_at": "2023-09-11T16:51:54.824677Z",
                        "file_type": 6,
                        "file_type__label": "PDF",
                        "download_url": "https://www.jag.navy.mil/documents/6877/SANTOSCRUZ_202200063_UNPUB.pdf"
                    },
                    "key": "d1a20eee-610b-40f0-b8a7-d2316a4f1d5c"
                }
            ],
            "media": []
        },
        {
            "id": 9863,
            "data": {
                "6e61b248-ef67-423e-b321-f2ed8ad05728": "2023-09-11",
                "80dedfc1-74a9-4372-a36f-8736c6baf754": "202200212",
                "9152980f-7bd6-4b48-8130-10500cda8cca": "Published",
                "9a84d8ce-017d-4a4b-821f-2fa33b700b0c": "U.S. v. BECKER"
            },
            "documents": [
                {
                    "document": {
                        "id": 6882,
                        "title": "BECKER_202200212_PUB",
                        "is_searchable": true,
                        "search_description": "",
                        "mime_type": "application/pdf",
                        "created_at": "2023-09-11T18:02:11.549856Z",
                        "file_type": 6,
                        "file_type__label": "PDF",
                        "download_url": "https://www.jag.navy.mil/documents/6882/BECKER_202200212_PUB.pdf"
                    },
                    "key": "d1a20eee-610b-40f0-b8a7-d2316a4f1d5c"
                }
            ],
            "media": []
        },
        {
            "id": 9749,
            "data": {
                "6e61b248-ef67-423e-b321-f2ed8ad05728": "2023-08-31",
                "80dedfc1-74a9-4372-a36f-8736c6baf754": "202200051",
                "9152980f-7bd6-4b48-8130-10500cda8cca": "Authored",
                "9a84d8ce-017d-4a4b-821f-2fa33b700b0c": "U.S. v. ELLARD"
            },
            "documents": [
                {
                    "document": {
                        "id": 6800,
                        "title": "ELLARD_202200051_UNPUB",
                        "is_searchable": true,
                        "search_description": "",
                        "mime_type": "application/pdf",
                        "created_at": "2023-08-31T19:47:25.092210Z",
                        "file_type": 6,
                        "file_type__label": "PDF",
                        "download_url": "https://www.jag.navy.mil/documents/6800/ELLARD_202200051_UNPUB.pdf"
                    },
                    "key": "d1a20eee-610b-40f0-b8a7-d2316a4f1d5c"
                }
            ],
            "media": []
        },
        {
            "id": 9750,
            "data": {
                "6e61b248-ef67-423e-b321-f2ed8ad05728": "2023-08-31",
                "80dedfc1-74a9-4372-a36f-8736c6baf754": "202300031",
                "9152980f-7bd6-4b48-8130-10500cda8cca": "Summary Disposition",
                "9a84d8ce-017d-4a4b-821f-2fa33b700b0c": "U.S. v. BERNAL"
            },
            "documents": [
                {
                    "document": {
                        "id": 6801,
                        "title": "BERNAL_202300031_SL",
                        "is_searchable": true,
                        "search_description": "",
                        "mime_type": "application/pdf",
                        "created_at": "2023-09-01T12:32:23.170927Z",
                        "file_type": 6,
                        "file_type__label": "PDF",
                        "download_url": "https://www.jag.navy.mil/documents/6801/BERNAL_202300031_SL.pdf"
                    },
                    "key": "d1a20eee-610b-40f0-b8a7-d2316a4f1d5c"
                }
            ],
            "media": []
        },
        {
            "id": 9748,
            "data": {
                "6e61b248-ef67-423e-b321-f2ed8ad05728": "2023-08-31",
                "80dedfc1-74a9-4372-a36f-8736c6baf754": "201600249",
                "9152980f-7bd6-4b48-8130-10500cda8cca": "Authored",
                "9a84d8ce-017d-4a4b-821f-2fa33b700b0c": "U.S. v. CHRISTOPHER"
            },
            "documents": [
                {
                    "document": {
                        "id": 6799,
                        "title": "CHRISTOPHER_201600249_UNPUB",
                        "is_searchable": true,
                        "search_description": "",
                        "mime_type": "application/pdf",
                        "created_at": "2023-08-31T18:36:37.133611Z",
                        "file_type": 6,
                        "file_type__label": "PDF",
                        "download_url": "https://www.jag.navy.mil/documents/6799/CHRISTOPHER_201600249_UNPUB.pdf"
                    },
                    "key": "d1a20eee-610b-40f0-b8a7-d2316a4f1d5c"
                }
            ],
            "media": []
        },
        {
            "id": 9541,
            "data": {
                "6e61b248-ef67-423e-b321-f2ed8ad05728": "2023-08-16",
                "80dedfc1-74a9-4372-a36f-8736c6baf754": "202100311",
                "9152980f-7bd6-4b48-8130-10500cda8cca": "Unpublished En Banc",
                "9a84d8ce-017d-4a4b-821f-2fa33b700b0c": "U.S. v. SWISHER"
            },
            "documents": [
                {
                    "document": {
                        "id": 6288,
                        "title": "U.S. v. Swisher",
                        "is_searchable": true,
                        "search_description": "U.S. v. Swisher Unpublished En Banc",
                        "mime_type": "application/pdf",
                        "created_at": "2023-08-16T15:02:00.510007Z",
                        "file_type": 6,
                        "file_type__label": "PDF",
                        "download_url": "https://www.jag.navy.mil/documents/6288/SWISHER_202100311_EN-BANC_UNPUB.pdf"
                    },
                    "key": "d1a20eee-610b-40f0-b8a7-d2316a4f1d5c"
                }
            ],
            "media": []
        }
    ]
}