{
  "_embedded": {
    "results": [
      {
        "caseHeader": {
          "caseInstanceUUID": "562e4de3-c5ea-4e8d-a87f-3c80c4693c70",
          "caseNumber": "4D2026-0606",
          "caseTitle": "Isaiah Hargrett v. State of Florida",
          "closedFlag": false,
          "caseClassification": "NOA Final - Circuit Criminal - Habeas Corpus Denial",
          "caseClassificationID": "1000116",
          "courtID": "5",
          "courtAbbreviation": "4th District Court of Appeal",
          "filedDate": "2026-03-05T16:17:00.000+00:00",
          "originatingCourtCases": [
            {
              "originatingCourtName": "Circuit Court for the Seventeenth Judicial Circuit, Broward County",
              "originatingCaseNumber": "062016CF013112A88810"
            }
          ]
        }
      },
      {
        "caseHeader": {
          "caseInstanceUUID": "0dfd7805-50a3-47ce-9ed0-13d21547475e",
          "caseNumber": "4D2026-0605",
          "caseTitle": "Ginot J. Dumay v. Department of Revenue - Child Support and Rose Marly Dieujuste Dumay",
          "closedFlag": false,
          "caseClassification": "NOA Final - Administrative - Other",
          "caseClassificationID": "1000101",
          "courtID": "5",
          "courtAbbreviation": "4th District Court of Appeal",
          "filedDate": "2026-03-05T15:52:00.000+00:00",
          "originatingCourtCases": [
            {
              "originatingCourtName": "Administrative Agency",
              "originatingCaseNumber": "06250011864CA; 2002140023"
            }
          ]
        }
      },
      {
        "caseHeader": {
          "caseInstanceUUID": "6dcffaed-03a8-4d13-a6d5-22ba5f6e9f78",
          "caseNumber": "6D2026-0550",
          "caseTitle": "BW4 PROPERTIES, INC. v. E2F HOMES, LLC and DELTA BUILD SERVICES, INC.",
          "closedFlag": false,
          "caseClassification": "NOA Final - Circuit Civil - Other",
          "caseClassificationID": "1000104",
          "courtID": "7",
          "courtAbbreviation": "6th District Court of Appeal",
          "filedDate": "2026-03-05T15:49:00.000+00:00",
          "originatingCourtCases": [
            {
              "originatingCourtName": "Circuit Court for the Twentieth Judicial Circuit, Lee County",
              "originatingCaseNumber": "2025-CA-000205"
            }
          ]
        }
      },
      {
        "caseHeader": {
          "caseInstanceUUID": "b452b90e-48bb-4637-89d2-fcc41e527807",
          "caseNumber": "3D2026-0463",
          "caseTitle": "Guerdy William Fabre v. Miami-Dade Police Department, et al.",
          "closedFlag": false,
          "caseClassification": "NOA Final - Circuit Civil - Other",
          "caseClassificationID": "1000104",
          "courtID": "4",
          "courtAbbreviation": "3rd District Court of Appeal",
          "filedDate": "2026-03-05T15:41:00.000+00:00",
          "originatingCourtCases": [
            {
              "originatingCourtName": "Circuit Court for the Eleventh Judicial Circuit, Miami-Dade County",
              "originatingCaseNumber": "22-24338-CA-01"
            }
          ]
        }
      },
      {
        "caseHeader": {
          "caseInstanceUUID": "afe183e6-b8bb-4af1-8631-76ffdae5ff5a",
          "caseNumber": "3D2026-0462",
          "caseTitle": "Zedent Ltd. Co. LLC, etc.  v. Titan Funding, LLC, etc., et al.",
          "closedFlag": false,
          "caseClassification": "NOA Final - Circuit Civil - Foreclosure",
          "caseClassificationID": "1000103",
          "courtID": "4",
          "courtAbbreviation": "3rd District Court of Appeal",
          "filedDate": "2026-03-05T15:39:00.000+00:00",
          "originatingCourtCases": [
            {
              "originatingCourtName": "Circuit Court for the Sixteenth Judicial Circuit, Monroe County",
              "originatingCaseNumber": "23-CA-841-K"
            }
          ]
        }
      },
      {
        "caseHeader": {
          "caseInstanceUUID": "8f1fa0eb-6645-4d37-b2c5-4562a1ee55c3",
          "caseNumber": "4D2026-0604",
          "caseTitle": "Erin Marie Wallace v. Frank Wallace",
          "closedFlag": false,
          "caseClassification": "NOA Final - Circuit Family - Other",
          "caseClassificationID": "1000122",
          "courtID": "5",
          "courtAbbreviation": "4th District Court of Appeal",
          "filedDate": "2026-03-05T15:33:00.000+00:00",
          "originatingCourtCases": [
            {
              "originatingCourtName": "Circuit Court for the Nineteenth Judicial Circuit, Indian River County",
              "originatingCaseNumber": "312019DR000718AXXXVB"
            }
          ]
        }
      },
      {
        "caseHeader": {
          "caseInstanceUUID": "5858ff1c-f861-46d0-9e2c-389159df3af4",
          "caseNumber": "6D2026-0549",
          "caseTitle": "MARY ELIZABETH SINOPOLI v. STATE OF FLORIDA",
          "closedFlag": false,
          "caseClassification": "NOA Final - Circuit Criminal - Judgment and Sentence",
          "caseClassificationID": "1000117",
          "courtID": "7",
          "courtAbbreviation": "6th District Court of Appeal",
          "filedDate": "2026-03-05T15:20:00.000+00:00",
          "originatingCourtCases": [
            {
              "originatingCourtName": "Circuit Court for the Twentieth Judicial Circuit, Lee County",
              "originatingCaseNumber": "2024-CF-014520"
            }
          ]
        }
      },
      {
        "caseHeader": {
          "caseInstanceUUID": "51f37814-673f-4e22-bbc2-0f4fb9091dac",
          "caseNumber": "4D2026-0603",
          "caseTitle": "Willie L. Brown v. State of Florida",
          "closedFlag": false,
          "caseClassification": "NOA Final - Circuit Criminal - 3.850 Summary",
          "caseClassificationID": "1000113",
          "courtID": "5",
          "courtAbbreviation": "4th District Court of Appeal",
          "filedDate": "2026-03-05T15:10:00.000+00:00",
          "originatingCourtCases": [
            {
              "originatingCourtName": "Circuit Court for the Fifteenth Judicial Circuit, Palm Beach County",
              "originatingCaseNumber": "502016CF005979AXXXMB"
            }
          ]
        }
      },
      {
        "caseHeader": {
          "caseInstanceUUID": "4bfd34d8-b577-4730-ab6b-1ae6bb74e976",
          "caseNumber": "5D2026-0622",
          "caseTitle": "St. Johns County, Florida v. Cecilia Ann Stapp, as Personal Representative of the Estate of Michael Addison Wood, and Florida Department of Transportation",
          "closedFlag": false,
          "caseClassification": "NOA Non Final - Circuit Civil - Other",
          "caseClassificationID": "1000169",
          "courtID": "6",
          "courtAbbreviation": "5th District Court of Appeal",
          "filedDate": "2026-03-05T14:48:00.000+00:00",
          "originatingCourtCases": [
            {
              "originatingCourtName": "Circuit Court for the Seventh Judicial Circuit, St. Johns County",
              "originatingCaseNumber": "2024-CA-000757"
            }
          ]
        }
      },
      {
        "caseHeader": {
          "caseInstanceUUID": "64c867cc-e15f-44c8-8ace-0ab9ea10b26e",
          "caseNumber": "2D2026-0566",
          "caseTitle": "Silva-Rodriguez v. State of Florida",
          "closedFlag": false,
          "caseClassification": "NOA Final - Circuit Criminal - Judgment and Sentence",
          "caseClassificationID": "1000117",
          "courtID": "3",
          "courtAbbreviation": "2nd District Court of Appeal",
          "filedDate": "2026-03-05T14:42:00.000+00:00",
          "originatingCourtCases": [
            {
              "originatingCourtName": "Circuit Court for the Sixth Judicial Circuit, Pasco County",
              "originatingCaseNumber": "2023CF004635CFAXES"
            }
          ]
        }
      },
      {
        "caseHeader": {
          "caseInstanceUUID": "71737894-56e9-462a-95b5-60276f057bd1",
          "caseNumber": "5D2026-0621",
          "caseTitle": "Milana D. Clark v. JPMorgan Chase Bank, N.A.",
          "closedFlag": false,
          "caseClassification": "NOA Final - County Civil - Other",
          "caseClassificationID": "1000133",
          "courtID": "6",
          "courtAbbreviation": "5th District Court of Appeal",
          "filedDate": "2026-03-05T14:34:00.000+00:00",
          "originatingCourtCases": [
            {
              "originatingCourtName": "County Court for the Fourth Judicial Circuit, Duval County",
              "originatingCaseNumber": "16-2025-CC-16505"
            }
          ]
        }
      },
      {
        "caseHeader": {
          "caseInstanceUUID": "5df5388b-00a5-42be-a6ba-f69668365abe",
          "caseNumber": "2D2026-0565",
          "caseTitle": "Gerow v. Brandywine Condominium Association One, Schrock, et al",
          "closedFlag": false,
          "caseClassification": "Original Proceedings - Circuit Civil - Prohibition",
          "caseClassificationID": "1000206",
          "courtID": "3",
          "courtAbbreviation": "2nd District Court of Appeal",
          "filedDate": "2026-03-05T14:33:00.000+00:00",
          "originatingCourtCases": [
            {
              "originatingCourtName": "Circuit Court for the Sixth Judicial Circuit, Pasco County",
              "originatingCaseNumber": "2025-CA-875"
            }
          ]
        }
      },
      {
        "caseHeader": {
          "caseInstanceUUID": "265d58b8-90d7-498b-b3ec-6601ccbb1d93",
          "caseNumber": "3D2026-0461",
          "caseTitle": "Alexander Otaola, et al. v. Armando Labrador, et al.",
          "closedFlag": false,
          "caseClassification": "Original Proceedings - Circuit Civil - Certiorari",
          "caseClassificationID": "1000202",
          "courtID": "4",
          "courtAbbreviation": "3rd District Court of Appeal",
          "filedDate": "2026-03-05T14:32:00.000+00:00",
          "originatingCourtCases": [
            {
              "originatingCourtName": "Circuit Court for the Eleventh Judicial Circuit, Miami-Dade County",
              "originatingCaseNumber": "25-23879-CA-01"
            }
          ]
        }
      },
      {
        "caseHeader": {
          "caseInstanceUUID": "2f139aa9-88bd-4c20-b19d-7deb0fd2b791",
          "caseNumber": "6D2026-0548",
          "caseTitle": "KEVIN DELEON v. PATRICIA DELEON LEACHMAN",
          "closedFlag": false,
          "caseClassification": "NOA Final - Circuit Family - Other",
          "caseClassificationID": "1000122",
          "courtID": "7",
          "courtAbbreviation": "6th District Court of Appeal",
          "filedDate": "2026-03-05T14:22:00.000+00:00",
          "originatingCourtCases": [
            {
              "originatingCourtName": "Circuit Court for the Ninth Judicial Circuit, Orange County",
              "originatingCaseNumber": "2020-DR-003877"
            }
          ]
        }
      },
      {
        "caseHeader": {
          "caseInstanceUUID": "de9badae-4c38-4b40-90e2-8420c2d125d6",
          "caseNumber": "5D2026-0620",
          "caseTitle": "Julia Lowry v. Douglas Lowry",
          "closedFlag": false,
          "caseClassification": "NOA Final - Circuit Family - Other",
          "caseClassificationID": "1000122",
          "courtID": "6",
          "courtAbbreviation": "5th District Court of Appeal",
          "filedDate": "2026-03-05T14:21:00.000+00:00",
          "originatingCourtCases": [
            {
              "originatingCourtName": "Circuit Court for the Fourth Judicial Circuit, Duval County",
              "originatingCaseNumber": "16-2026-DR-000097"
            }
          ]
        }
      },
      {
        "caseHeader": {
          "caseInstanceUUID": "22d370ef-9951-47d3-b4a6-1cc8a1150476",
          "caseNumber": "4D2026-0602",
          "caseTitle": "Jill Helsel and Kamron Helsel v. Code Enforcement Board of Indian River County, Florida",
          "closedFlag": false,
          "caseClassification": "Original Proceedings - County Administrative - Certiorari",
          "caseClassificationID": "1000242",
          "courtID": "5",
          "courtAbbreviation": "4th District Court of Appeal",
          "filedDate": "2026-03-05T14:17:00.000+00:00",
          "originatingCourtCases": [
            {
              "originatingCourtName": "Circuit Court for the Nineteenth Judicial Circuit, Indian River County",
              "originatingCaseNumber": "312024AP000003AXXXVB"
            }
          ]
        }
      },
      {
        "caseHeader": {
          "caseInstanceUUID": "f6847caa-b117-4cf8-a936-d5c44d03c4f3",
          "caseNumber": "SC2026-0364",
          "caseTitle": "In re: Petition for Disciplinary Revocation of A. Marie Delapena",
          "closedFlag": false,
          "caseClassification": "Original Proceedings - Florida Bar - Disciplinary Revocation without Leave to Seek Readmission",
          "caseClassificationID": "1000056",
          "courtID": "1",
          "courtAbbreviation": "Supreme Court of Florida",
          "filedDate": "2026-03-05T14:07:00.000+00:00",
          "originatingCourtCases": [
            {
              "originatingCourtName": "Administrative Agency",
              "originatingCaseNumber": "2026-30, 625(9A)(CDR)"
            }
          ]
        }
      },
      {
        "caseHeader": {
          "caseInstanceUUID": "190ff8c7-fb0b-46a2-8bb6-cb7693403d36",
          "caseNumber": "2D2026-0564",
          "caseTitle": "Burke v. Escoe, N/K/A Heather M. Crittenden",
          "closedFlag": false,
          "caseClassification": "Original Proceedings - Circuit Family - Prohibition",
          "caseClassificationID": "1000222",
          "courtID": "3",
          "courtAbbreviation": "2nd District Court of Appeal",
          "filedDate": "2026-03-05T14:07:00.000+00:00",
          "originatingCourtCases": [
            {
              "originatingCourtName": "Circuit Court for the Sixth Judicial Circuit, Pinellas County",
              "originatingCaseNumber": "18-004827-FD-23"
            }
          ]
        }
      },
      {
        "caseHeader": {
          "caseInstanceUUID": "b97e64e3-a7b5-4592-ae0f-c0c9ce30cb84",
          "caseNumber": "2D2026-0563",
          "caseTitle": "Mishiyev v. Hack, Cox Media Group, LLC",
          "closedFlag": false,
          "caseClassification": "NOA Final - Circuit Civil - Other",
          "caseClassificationID": "1000104",
          "courtID": "3",
          "courtAbbreviation": "2nd District Court of Appeal",
          "filedDate": "2026-03-05T13:52:00.000+00:00",
          "originatingCourtCases": [
            {
              "originatingCourtName": "Circuit Court for the Thirteenth Judicial Circuit, Hillsborough County",
              "originatingCaseNumber": "24-CA-010315"
            }
          ]
        }
      },
      {
        "caseHeader": {
          "caseInstanceUUID": "0640e08a-f67a-4893-b53c-c33c36777e24",
          "caseNumber": "5D2026-0618",
          "caseTitle": "Marvin Ray Butler, Jr. v. State of Florida",
          "closedFlag": false,
          "caseClassification": "NOA Final - Circuit Criminal - Habeas Corpus Denial",
          "caseClassificationID": "1000116",
          "courtID": "6",
          "courtAbbreviation": "5th District Court of Appeal",
          "filedDate": "2026-03-05T13:40:00.000+00:00",
          "originatingCourtCases": [
            {
              "originatingCourtName": "Circuit Court for the Fourth Judicial Circuit, Duval County",
              "originatingCaseNumber": "16-2025-CF-003180-A"
            }
          ]
        }
      },
      {
        "caseHeader": {
          "caseInstanceUUID": "021736b9-7e32-4a57-b437-361c10ab52e6",
          "caseNumber": "4D2026-0601",
          "caseTitle": "Alexia Demine Mowatt v. State of Florida",
          "closedFlag": false,
          "caseClassification": "NOA Final - Circuit Criminal - Judgment and Sentence",
          "caseClassificationID": "1000117",
          "courtID": "5",
          "courtAbbreviation": "4th District Court of Appeal",
          "filedDate": "2026-03-05T13:39:00.000+00:00",
          "originatingCourtCases": [
            {
              "originatingCourtName": "Circuit Court for the Fifteenth Judicial Circuit, Palm Beach County",
              "originatingCaseNumber": "502022CF010065AXXXMB"
            }
          ]
        }
      },
      {
        "caseHeader": {
          "caseInstanceUUID": "453f8dc0-9cd9-4cb1-9426-d775b9505388",
          "caseNumber": "6D2026-0546",
          "caseTitle": "MARK P. STOPA v. KEVIN C. CANNON, PETER ROBERT MCGRATH, PETER R. MCGRATH, P. A.",
          "closedFlag": false,
          "caseClassification": "Original Proceedings - Circuit Civil - Certiorari",
          "caseClassificationID": "1000202",
          "courtID": "7",
          "courtAbbreviation": "6th District Court of Appeal",
          "filedDate": "2026-03-05T13:34:00.000+00:00",
          "originatingCourtCases": [
            {
              "originatingCourtName": "Circuit Court for the Ninth Judicial Circuit, Orange County",
              "originatingCaseNumber": "2024-CA-003685"
            }
          ]
        }
      },
      {
        "caseHeader": {
          "caseInstanceUUID": "7fd85b19-5422-4bf8-b601-428b6e0e184e",
          "caseNumber": "1D2026-0627",
          "caseTitle": "Fillyaw v. State of Florida Highway Patrol, Division of Risk Management",
          "closedFlag": false,
          "caseClassification": "NOA Final - Workers Compensation - Workers Compensation",
          "caseClassificationID": "1000165",
          "courtID": "2",
          "courtAbbreviation": "1st District Court of Appeal",
          "filedDate": "2026-03-05T13:34:00.000+00:00",
          "originatingCourtCases": [
            {
              "originatingCourtName": "Office of the Judges of Compensation Claims",
              "originatingCaseNumber": "25-012088JLN"
            }
          ]
        }
      },
      {
        "caseHeader": {
          "caseInstanceUUID": "c08f53a2-d606-4662-9f04-cb7a809a4b40",
          "caseNumber": "3D2026-0458",
          "caseTitle": "Tyrone D. Williams v. Department of Corrections, et al.",
          "closedFlag": false,
          "caseClassification": "NOA Final - Circuit Criminal - Habeas Corpus Denial",
          "caseClassificationID": "1000116",
          "courtID": "4",
          "courtAbbreviation": "3rd District Court of Appeal",
          "filedDate": "2026-03-05T13:32:00.000+00:00",
          "originatingCourtCases": [
            {
              "originatingCourtName": "Circuit Court for the Eleventh Judicial Circuit, Miami-Dade County",
              "originatingCaseNumber": "F25-27180"
            }
          ]
        }
      },
      {
        "caseHeader": {
          "caseInstanceUUID": "51bdb703-4d2e-4573-9b45-c70e9992696a",
          "caseNumber": "5D2026-0617",
          "caseTitle": "Jason W. Attride v. State of Florida",
          "closedFlag": false,
          "caseClassification": "NOA Final - Circuit Criminal - 3.850 Non Summary",
          "caseClassificationID": "1000112",
          "courtID": "6",
          "courtAbbreviation": "5th District Court of Appeal",
          "filedDate": "2026-03-05T13:28:00.000+00:00",
          "originatingCourtCases": [
            {
              "originatingCourtName": "Circuit Court for the Seventh Judicial Circuit, Volusia County",
              "originatingCaseNumber": "2014-301631-CFDB"
            }
          ]
        }
      }
    ]
  },
  "page": {
    "size": 25,
    "totalElements": 10000,
    "totalPages": 400,
    "number": 0
  }
}